git notes remove 0f9ee3d17d83b21f4638eadaf1513daf02ccffbf 100c070e05889097803c0633be8be95229788a5d 1a4d068ef785989fb6be4c3bf31b5eb692f545c6 1ca2b3cb9aa1b902434117edc60a27b106947d43 252b89a5efa16ee522bc19894deacd077f774889 2a597c35879974dc3154e9a6f72a64f31d1fc32a 31a92f6fa262afec37e08a8b5e3852a3cb83ab4d 369f5523abd3f6c33cc39524be18cd34e20f4b42 5905487e81efa97e204c5db2249bcab5bb8f993b 6b78071fb07e299f41e12c451c4df4db02fafaf7 6bba1cd798de22c0716f96544551540cbc866e33 9740aa1b2825809aa39e32e33444907d23c708b9 a3e2516a7bd67a5d142b01fa7fda9d8d5c8328ab ac98bf9a81fbf4b9f08c12bd28abb15f6ec21a8d b070671a221c4c84f49a981d03a99c21cdd46354 c214e6d717cb9b2f242ea95a22821402f17fbe4d c78c483d9d63972bf65d7487f7226e18eed41543 dd8c027dd2717f6377a732e9c51a5b30258f4ac9 ee6f7fbf19fdf8b8efaa70c839df2a0db5303c30 f71fc8f61cfd70270060eba59aa495fbd426f88e fe14595d2aa2eb9b7ec6691c1908e98edeadcd57
Removing note for object 0f9ee3d17d83b21f4638eadaf1513daf02ccffbf
Removing note for object 100c070e05889097803c0633be8be95229788a5d
Removing note for object 1a4d068ef785989fb6be4c3bf31b5eb692f545c6
Removing note for object 1ca2b3cb9aa1b902434117edc60a27b106947d43
Removing note for object 252b89a5efa16ee522bc19894deacd077f774889
Removing note for object 2a597c35879974dc3154e9a6f72a64f31d1fc32a
Removing note for object 31a92f6fa262afec37e08a8b5e3852a3cb83ab4d
Removing note for object 369f5523abd3f6c33cc39524be18cd34e20f4b42
Removing note for object 5905487e81efa97e204c5db2249bcab5bb8f993b
Removing note for object 6b78071fb07e299f41e12c451c4df4db02fafaf7
Removing note for object 6bba1cd798de22c0716f96544551540cbc866e33
Removing note for object 9740aa1b2825809aa39e32e33444907d23c708b9
Removing note for object a3e2516a7bd67a5d142b01fa7fda9d8d5c8328ab
Removing note for object ac98bf9a81fbf4b9f08c12bd28abb15f6ec21a8d
Removing note for object b070671a221c4c84f49a981d03a99c21cdd46354
Removing note for object c214e6d717cb9b2f242ea95a22821402f17fbe4d
Removing note for object c78c483d9d63972bf65d7487f7226e18eed41543
Removing note for object dd8c027dd2717f6377a732e9c51a5b30258f4ac9
Removing note for object ee6f7fbf19fdf8b8efaa70c839df2a0db5303c30
Removing note for object f71fc8f61cfd70270060eba59aa495fbd426f88e
Removing note for object fe14595d2aa2eb9b7ec6691c1908e98edeadcd57


5c7206444a51818a2840b33b33b2630995b6ab96 belongs to bad object 0f9ee3d17d83b21f4638eadaf1513daf02ccffbf !
Applies to next-20140120
5c7206444a51818a2840b33b33b2630995b6ab96 belongs to bad object 100c070e05889097803c0633be8be95229788a5d !
Applies to next-20140120
5c7206444a51818a2840b33b33b2630995b6ab96 belongs to bad object 1a4d068ef785989fb6be4c3bf31b5eb692f545c6 !
Applies to next-20140120
5c7206444a51818a2840b33b33b2630995b6ab96 belongs to bad object 1ca2b3cb9aa1b902434117edc60a27b106947d43 !
Applies to next-20140120
f207468754e4d11f2374cf0f3fe7a8d21c856539 belongs to bad object 252b89a5efa16ee522bc19894deacd077f774889 !
Changes since v8:

1. rebase drivers/clk/Makefile to next-20140117

DT bindings document:

2. describe PLL/APB in two separate sections
3. update example

Applies to next-20140117
5c7206444a51818a2840b33b33b2630995b6ab96 belongs to bad object 2a597c35879974dc3154e9a6f72a64f31d1fc32a !
Applies to next-20140120
d2e643408f60a93477382e54fb685893b96c9571 belongs to bad object 31a92f6fa262afec37e08a8b5e3852a3cb83ab4d !
This fixes the following error on wget download (or ncftp),
usually after only a few seconds:

"read error: Bad address"

On receiving this error, wget exits. The download is not resumed (busybox default).

Applies to next-20140120
5c7206444a51818a2840b33b33b2630995b6ab96 belongs to bad object 369f5523abd3f6c33cc39524be18cd34e20f4b42 !
Applies to next-20140120
5c7206444a51818a2840b33b33b2630995b6ab96 belongs to bad object 5905487e81efa97e204c5db2249bcab5bb8f993b !
Applies to next-20140120
5f551936e85742d0fdb1381e9778a0b4e59c1578 belongs to bad object 6b78071fb07e299f41e12c451c4df4db02fafaf7 !
see "Merge tag 'cleanup-3.15' of git://git.kernel.org/pub/scm/linux/kernel/git/arm/arm-soc" dfc25e4503aef6b82a1de4a0fbe19aafa8648fbe

Applies to next-20140409
5f551936e85742d0fdb1381e9778a0b4e59c1578 belongs to bad object 6bba1cd798de22c0716f96544551540cbc866e33 !
see "Merge tag 'cleanup-3.15' of git://git.kernel.org/pub/scm/linux/kernel/git/arm/arm-soc" dfc25e4503aef6b82a1de4a0fbe19aafa8648fbe

Applies to next-20140409
5c7206444a51818a2840b33b33b2630995b6ab96 belongs to bad object 9740aa1b2825809aa39e32e33444907d23c708b9 !
Applies to next-20140120
f207468754e4d11f2374cf0f3fe7a8d21c856539 belongs to bad object a3e2516a7bd67a5d142b01fa7fda9d8d5c8328ab !
Changes since v8:

1. rebase drivers/clk/Makefile to next-20140117

DT bindings document:

2. describe PLL/APB in two separate sections
3. update example

Applies to next-20140117
5c7206444a51818a2840b33b33b2630995b6ab96 belongs to bad object ac98bf9a81fbf4b9f08c12bd28abb15f6ec21a8d !
Applies to next-20140120
5c7206444a51818a2840b33b33b2630995b6ab96 belongs to bad object b070671a221c4c84f49a981d03a99c21cdd46354 !
Applies to next-20140120
d816f0f6f61b9160fe62db14732c95e5784cede1 belongs to bad object c214e6d717cb9b2f242ea95a22821402f17fbe4d !
Applies on top of:

"[PATCH] ARM: moxart: move fixed rate clock child node to board level dts"
http://lists.infradead.org/pipermail/linux-arm-kernel/2014-January/226141.html

Applies to next-20140121
3ea733487a56f2659371aa2c061a186cacf5cf18 belongs to bad object c78c483d9d63972bf65d7487f7226e18eed41543 !
Changes since v6:

1. use mmc_of_parse()
2. remove duplicate defines MSD_*
3. add reference to bindings/mmc/mmc.txt in DT binding
4. update DT binding example
   ("coreclk" renamed "clk_apb", DMA channel number is no longer needed)
5. rename "sdhci-moxart" "moxart-mmc"
6. remove dmaengine_tx_status() / don't check error
   Used only to print on DMA error, remove it instead of risking kernel panic.
7. format comments / use correct grammar

Applies to next-20140121
5c7206444a51818a2840b33b33b2630995b6ab96 belongs to bad object dd8c027dd2717f6377a732e9c51a5b30258f4ac9 !
Applies to next-20140120
5f551936e85742d0fdb1381e9778a0b4e59c1578 belongs to bad object ee6f7fbf19fdf8b8efaa70c839df2a0db5303c30 !
see "Merge tag 'cleanup-3.15' of git://git.kernel.org/pub/scm/linux/kernel/git/arm/arm-soc" dfc25e4503aef6b82a1de4a0fbe19aafa8648fbe

Applies to next-20140409
bb96fc911e87f68a8d09d7b7f8d23642f8d3d6bc belongs to bad object f71fc8f61cfd70270060eba59aa495fbd426f88e !
This fixes the following error, on wget download (or ncftp): "read error: Bad address"
wget exits and leaves the file unfinished.

Applies to next-20140115
effce74c7b7f706c5c0a7c451946d5a593f53f43 belongs to bad object fe14595d2aa2eb9b7ec6691c1908e98edeadcd57 !
Applies to next-20140116
